build/dump.vcd
$date
	Fri Sep  8 12:11:42 2023
$end
$version
	Icarus Verilog
$end
$timescale
	1s
$end
$scope module main $end
$var reg 1 ! CLK $end
$var reg 1 " RST $end
$var reg 32 # cycle [31:0] $end
$var reg 1 $ do_cycles $end
$var reg 1 % do_fsdb $end
$var reg 1 & do_fst $end
$var reg 1 ' do_vcd $end
$var reg 2048 ( filename [2048:1] $end
$scope module top $end
$var wire 1 ) CAN_FIRE_RL_request_pipe $end
$var wire 1 ! CLK $end
$var wire 1 " RST_N $end
$var wire 1 * WILL_FIRE_RL_request_pipe $end
$var wire 1 + WILL_FIRE_RL_response_pipe $end
$var wire 1 , \basic_pipeline$EN_get_data $end
$var wire 1 - \basic_pipeline$EN_put_data $end
$var wire 1 . \counter$EN $end
$var wire 8 / \data_in_tb$D_IN [7:0] $end
$var wire 1 0 \data_in_tb$EN $end
$var wire 8 1 \counter$D_IN [7:0] $end
$var wire 8 2 \basic_pipeline$put_data_data_in [7:0] $end
$var wire 1 3 \basic_pipeline$RDY_put_data $end
$var wire 1 4 CAN_FIRE_RL_response_pipe $end
$var reg 8 5 counter [7:0] $end
$var reg 8 6 data_in_tb [7:0] $end
$scope module basic_pipeline $end
$var wire 1 7 CAN_FIRE_RL_rl_pipe $end
$var wire 1 8 CAN_FIRE_get_data $end
$var wire 1 ! CLK $end
$var wire 1 , EN_get_data $end
$var wire 1 - EN_put_data $end
$var wire 1 9 RDY_get_data $end
$var wire 1 " RST_N $end
$var wire 1 : WILL_FIRE_RL_rl_pipe $end
$var wire 1 ; WILL_FIRE_get_data $end
$var wire 1 < WILL_FIRE_put_data $end
$var wire 8 = \data_in_reg$D_IN [7:0] $end
$var wire 1 > \data_in_reg$EN $end
$var wire 1 ? \data_inserted$EN $end
$var wire 8 @ \data_out_reg$D_IN [7:0] $end
$var wire 1 A \data_out_reg$EN $end
$var wire 1 B \data_ready$D_IN $end
$var wire 1 C \data_ready$EN $end
$var wire 8 D get_data [7:0] $end
$var wire 8 E put_data_data_in [7:0] $end
$var wire 1 F \data_inserted$D_IN $end
$var wire 1 3 RDY_put_data $end
$var wire 1 G CAN_FIRE_put_data $end
$var reg 8 H data_in_reg [7:0] $end
$var reg 1 I data_inserted $end
$var reg 8 J data_out_reg [7:0] $end
$var reg 1 K data_ready $end
$upscope $end
$upscope $end
$upscope $end
$enddefinitions $end
#0
$dumpvars
0K
b10101010 J
0I
b10101010 H
1G
1F
b1010100 E
b10101010 D
0C
0B
0A
b10101010 @
0?
0>
b1010100 =
0<
0;
0:
09
08
07
b10101010 6
b10101010 5
04
13
b1010100 2
b10101011 1
00
b0 /
0.
0-
0,
0+
0*
0)
b110010001110101011011010111000000101110011101100110001101100100 (
1'
0&
0%
0$
b0 #
0"
x!
$end
#1
1?
1*
1.
1<
1>
1-
1)
b0 D
b0 J
b0 @
b0 H
b1010 6
b11 1
b1100 =
b1100 2
b1100 E
b10 5
1!
b1 #
#2
1"
#5
0!
#10
0*
0.
0<
0>
0-
0)
1C
b100 1
b1101 =
b1101 2
b1101 E
b11 5
03
0G
0F
1B
1A
1:
17
1I
b1100 @
b1100 H
1!
#11
b10 #
#15
0!
#20
1*
1.
1<
1>
1-
1)
0C
1?
18
19
1K
b1100 D
b1100 J
13
1G
1F
0B
0A
0:
07
0I
1!
#21
b11 #
#25
0!
#30
0*
0.
0<
0>
0-
0)
1C
b101 1
b1110 =
b1110 2
b1110 E
b100 5
03
0G
0F
1B
1A
1:
17
1I
b1101 @
b1101 H
1!
#31
b100 #
#35
0!
#40
1*
1.
1<
1>
1-
1)
0C
1?
b1101 D
b1101 J
13
1G
1F
0B
0A
0:
07
0I
1!
#41
b101 #
#45
0!
#50
0*
0.
0<
0>
0-
0)
1C
b110 1
b1111 =
b1111 2
b1111 E
b101 5
03
0G
0F
1B
1A
1:
17
1I
b1110 @
b1110 H
1!
#51
b110 #
#55
0!
#60
1*
1.
1<
1>
1-
1)
0C
1?
b1110 D
b1110 J
13
1G
1F
0B
0A
0:
07
0I
1!
#61
b111 #
#65
0!
#70
0*
0.
0<
0>
0-
0)
1C
b111 1
b10000 =
b10000 2
b10000 E
b110 5
03
0G
0F
1B
1A
1:
17
1I
b1111 @
b1111 H
1!
#71
b1000 #
#75
0!
#80
1*
1.
1<
1>
1-
1)
0C
1?
b1111 D
b1111 J
13
1G
1F
0B
0A
0:
07
0I
1!
#81
b1001 #
#85
0!
#90
0*
0.
0<
0>
0-
0)
1C
b1000 1
b10001 =
b10001 2
b10001 E
b111 5
03
0G
0F
1B
1A
1:
17
1I
b10000 @
b10000 H
1!
#91
b1010 #
#95
0!
#100
1*
1.
1<
1>
1-
1)
0C
1?
b10000 D
b10000 J
13
1G
1F
0B
0A
0:
07
0I
1!
#101
b1011 #
#105
0!
#110
0*
0.
0<
0>
0-
0)
1C
b1001 1
b10010 =
b10010 2
b10010 E
b1000 5
03
0G
0F
1B
1A
1:
17
1I
b10001 @
b10001 H
1!
#111
b1100 #
#115
0!
#120
1*
1.
1<
1>
1-
1)
0C
1?
b10001 D
b10001 J
13
1G
1F
0B
0A
0:
07
0I
1!
#121
b1101 #
#125
0!
#130
0*
0.
0<
0>
0-
0)
1C
b1010 1
b10011 =
b10011 2
b10011 E
b1001 5
03
0G
0F
1B
1A
1:
17
1I
b10010 @
b10010 H
1!
#131
b1110 #
#135
0!
#140
1*
1.
1<
1>
1-
1)
0C
1?
b10010 D
b10010 J
13
1G
1F
0B
0A
0:
07
0I
1!
#141
b1111 #
#145
0!
#150
0*
0.
0<
0>
0-
0)
1C
1+
14
b1011 1
b10100 =
b10100 2
b10100 E
b1010 5
03
0G
0F
1B
1A
1:
17
1I
b10011 @
b10011 H
1!
#151
b10000 #
